EACSII-2023 - Taller 3
…
Los filtros seleccionan casos que cumplen con una condición.

Se pueden usar varias condiciones con los operadores & y |

Se puede negar una condición con el operador !

El operador %in% o match puede combinarse con vectores como listas de elementos válidos en una variable

Aquí unos ejemplos:

enoet322socdem_tiempo %>% 
  dplyr::filter(eda>14) # cumple con la condición de mayores de 14 años 

# A tibble: 303,710 × 129
   r_def          loc   mun   est est_d…¹ est_d…²  ageb t_loc…³ t_loc…⁴ cd_a    
   <dbl+lbl>    <dbl> <dbl> <dbl>   <dbl>   <dbl> <dbl> <dbl+l> <dbl+l> <dbl+lb>
 1 0 [Entrevis…    NA     9    30     395      NA     0 1 [Loc… NA      10 [Tam…
 2 0 [Entrevis…    NA     9    30     395      NA     0 1 [Loc… NA      10 [Tam…
 3 0 [Entrevis…    NA     9    30     395      NA     0 1 [Loc… NA      10 [Tam…
 4 0 [Entrevis…    NA     9    30     395      NA     0 1 [Loc… NA      10 [Tam…
 5 0 [Entrevis…    NA     9    30     395      NA     0 1 [Loc… NA      10 [Tam…
 6 0 [Entrevis…    NA     9    30     395      NA     0 1 [Loc… NA      10 [Tam…
 7 0 [Entrevis…    NA     9    30     395      NA     0 1 [Loc… NA      10 [Tam…
 8 0 [Entrevis…    NA     9    30     395      NA     0 1 [Loc… NA      10 [Tam…
 9 0 [Entrevis…    NA    38    20     394      NA     0 1 [Loc… NA      10 [Tam…
10 0 [Entrevis…    NA    38    20     394      NA     0 1 [Loc… NA      10 [Tam…
# … with 303,700 more rows, 119 more variables: ent <dbl+lbl>, con <dbl>,
#   upm <dbl>, d_sem <dbl+lbl>, n_pro_viv <dbl>, v_sel <dbl+lbl>,
#   n_hog <dbl+lbl>, h_mud <dbl+lbl>, n_ent <dbl+lbl>, per <dbl+lbl>,
#   n_ren <dbl+lbl>, c_res <dbl+lbl>, par_c <dbl>, sex <dbl+lbl>, eda <dbl>,
#   nac_dia <dbl+lbl>, nac_mes <dbl+lbl>, nac_anio <dbl>, l_nac_c <dbl+lbl>,
#   cs_p12 <dbl+lbl>, cs_p13_1 <dbl+lbl>, cs_p13_2 <dbl+lbl>, cs_p14_c <chr>,
#   cs_p15 <dbl+lbl>, cs_p16 <dbl+lbl>, cs_p17 <dbl+lbl>, n_hij <dbl+lbl>, …

enoet322socdem_tiempo %>% 
  dplyr::filter(!eda>14) # NO cumple con la condición de mayores de 14 años

# A tibble: 87,038 × 129
   r_def          loc   mun   est est_d…¹ est_d…²  ageb t_loc…³ t_loc…⁴ cd_a    
   <dbl+lbl>    <dbl> <dbl> <dbl>   <dbl>   <dbl> <dbl> <dbl+l> <dbl+l> <dbl+lb>
 1 0 [Entrevis…    NA     9    30     395      NA     0 1 [Loc… NA      10 [Tam…
 2 0 [Entrevis…    NA     9    30     395      NA     0 1 [Loc… NA      10 [Tam…
 3 0 [Entrevis…    NA     9    30     395      NA     0 1 [Loc… NA      10 [Tam…
 4 0 [Entrevis…    NA    38    20     394      NA     0 1 [Loc… NA      10 [Tam…
 5 0 [Entrevis…    NA    38    20     394      NA     0 1 [Loc… NA      10 [Tam…
 6 0 [Entrevis…    NA    38    30     395      NA     0 1 [Loc… NA      10 [Tam…
 7 0 [Entrevis…    NA     9    20     394      NA     0 1 [Loc… NA      10 [Tam…
 8 0 [Entrevis…    NA     9    20     394      NA     0 1 [Loc… NA      10 [Tam…
 9 0 [Entrevis…    NA     9    20     394      NA     0 1 [Loc… NA      10 [Tam…
10 0 [Entrevis…    NA     9    20     394      NA     0 1 [Loc… NA      10 [Tam…
# … with 87,028 more rows, 119 more variables: ent <dbl+lbl>, con <dbl>,
#   upm <dbl>, d_sem <dbl+lbl>, n_pro_viv <dbl>, v_sel <dbl+lbl>,
#   n_hog <dbl+lbl>, h_mud <dbl+lbl>, n_ent <dbl+lbl>, per <dbl+lbl>,
#   n_ren <dbl+lbl>, c_res <dbl+lbl>, par_c <dbl>, sex <dbl+lbl>, eda <dbl>,
#   nac_dia <dbl+lbl>, nac_mes <dbl+lbl>, nac_anio <dbl>, l_nac_c <dbl+lbl>,
#   cs_p12 <dbl+lbl>, cs_p13_1 <dbl+lbl>, cs_p13_2 <dbl+lbl>, cs_p14_c <chr>,
#   cs_p15 <dbl+lbl>, cs_p16 <dbl+lbl>, cs_p17 <dbl+lbl>, n_hij <dbl+lbl>, …

enoet322socdem_tiempo %>% 
  dplyr::filter(eda>14 & sex==2) # la condición que sea mujer Y mayor de 14 años

# A tibble: 160,498 × 129
   r_def          loc   mun   est est_d…¹ est_d…²  ageb t_loc…³ t_loc…⁴ cd_a    
   <dbl+lbl>    <dbl> <dbl> <dbl>   <dbl>   <dbl> <dbl> <dbl+l> <dbl+l> <dbl+lb>
 1 0 [Entrevis…    NA     9    30     395      NA     0 1 [Loc… NA      10 [Tam…
 2 0 [Entrevis…    NA     9    30     395      NA     0 1 [Loc… NA      10 [Tam…
 3 0 [Entrevis…    NA     9    30     395      NA     0 1 [Loc… NA      10 [Tam…
 4 0 [Entrevis…    NA     9    30     395      NA     0 1 [Loc… NA      10 [Tam…
 5 0 [Entrevis…    NA     9    30     395      NA     0 1 [Loc… NA      10 [Tam…
 6 0 [Entrevis…    NA     9    30     395      NA     0 1 [Loc… NA      10 [Tam…
 7 0 [Entrevis…    NA    38    20     394      NA     0 1 [Loc… NA      10 [Tam…
 8 0 [Entrevis…    NA    38    20     394      NA     0 1 [Loc… NA      10 [Tam…
 9 0 [Entrevis…    NA    38    20     394      NA     0 1 [Loc… NA      10 [Tam…
10 0 [Entrevis…    NA    38    20     394      NA     0 1 [Loc… NA      10 [Tam…
# … with 160,488 more rows, 119 more variables: ent <dbl+lbl>, con <dbl>,
#   upm <dbl>, d_sem <dbl+lbl>, n_pro_viv <dbl>, v_sel <dbl+lbl>,
#   n_hog <dbl+lbl>, h_mud <dbl+lbl>, n_ent <dbl+lbl>, per <dbl+lbl>,
#   n_ren <dbl+lbl>, c_res <dbl+lbl>, par_c <dbl>, sex <dbl+lbl>, eda <dbl>,
#   nac_dia <dbl+lbl>, nac_mes <dbl+lbl>, nac_anio <dbl>, l_nac_c <dbl+lbl>,
#   cs_p12 <dbl+lbl>, cs_p13_1 <dbl+lbl>, cs_p13_2 <dbl+lbl>, cs_p14_c <chr>,
#   cs_p15 <dbl+lbl>, cs_p16 <dbl+lbl>, cs_p17 <dbl+lbl>, n_hij <dbl+lbl>, …

enoet322socdem_tiempo %>% 
  dplyr::filter(eda>14 | sex==2) # la condición que sea mujer O mayor de 14 años

# A tibble: 346,166 × 129
   r_def          loc   mun   est est_d…¹ est_d…²  ageb t_loc…³ t_loc…⁴ cd_a    
   <dbl+lbl>    <dbl> <dbl> <dbl>   <dbl>   <dbl> <dbl> <dbl+l> <dbl+l> <dbl+lb>
 1 0 [Entrevis…    NA     9    30     395      NA     0 1 [Loc… NA      10 [Tam…
 2 0 [Entrevis…    NA     9    30     395      NA     0 1 [Loc… NA      10 [Tam…
 3 0 [Entrevis…    NA     9    30     395      NA     0 1 [Loc… NA      10 [Tam…
 4 0 [Entrevis…    NA     9    30     395      NA     0 1 [Loc… NA      10 [Tam…
 5 0 [Entrevis…    NA     9    30     395      NA     0 1 [Loc… NA      10 [Tam…
 6 0 [Entrevis…    NA     9    30     395      NA     0 1 [Loc… NA      10 [Tam…
 7 0 [Entrevis…    NA     9    30     395      NA     0 1 [Loc… NA      10 [Tam…
 8 0 [Entrevis…    NA     9    30     395      NA     0 1 [Loc… NA      10 [Tam…
 9 0 [Entrevis…    NA     9    30     395      NA     0 1 [Loc… NA      10 [Tam…
10 0 [Entrevis…    NA     9    30     395      NA     0 1 [Loc… NA      10 [Tam…
# … with 346,156 more rows, 119 more variables: ent <dbl+lbl>, con <dbl>,
#   upm <dbl>, d_sem <dbl+lbl>, n_pro_viv <dbl>, v_sel <dbl+lbl>,
#   n_hog <dbl+lbl>, h_mud <dbl+lbl>, n_ent <dbl+lbl>, per <dbl+lbl>,
#   n_ren <dbl+lbl>, c_res <dbl+lbl>, par_c <dbl>, sex <dbl+lbl>, eda <dbl>,
#   nac_dia <dbl+lbl>, nac_mes <dbl+lbl>, nac_anio <dbl>, l_nac_c <dbl+lbl>,
#   cs_p12 <dbl+lbl>, cs_p13_1 <dbl+lbl>, cs_p13_2 <dbl+lbl>, cs_p14_c <chr>,
#   cs_p15 <dbl+lbl>, cs_p16 <dbl+lbl>, cs_p17 <dbl+lbl>, n_hij <dbl+lbl>, …

# Veracruz - 30
# Puebla - 21
# Guanajuato - 11
# Nuevo León - 19

enoet322socdem_tiempo %>% 
  filter(ent%in%c(30, 21, 11, 19))

# A tibble: 58,977 × 129
   r_def          loc   mun   est est_d…¹ est_d…²  ageb t_loc…³ t_loc…⁴ cd_a    
   <dbl+lbl>    <dbl> <dbl> <dbl>   <dbl>   <dbl> <dbl> <dbl+l> <dbl+l> <dbl+lb>
 1 0 [Entrevis…    NA   133    20     426      NA     0 3 [Loc… NA      10 [Tam…
 2 0 [Entrevis…    NA   133    20     426      NA     0 3 [Loc… NA      10 [Tam…
 3 0 [Entrevis…    NA   133    20     426      NA     0 3 [Loc… NA      10 [Tam…
 4 0 [Entrevis…    NA   133    20     426      NA     0 3 [Loc… NA      10 [Tam…
 5 0 [Entrevis…    NA   133    20     426      NA     0 3 [Loc… NA      10 [Tam…
 6 0 [Entrevis…    NA   133    20     426      NA     0 3 [Loc… NA      10 [Tam…
 7 0 [Entrevis…    NA   133    20     426      NA     0 3 [Loc… NA      10 [Tam…
 8 0 [Entrevis…    NA   133    20     426      NA     0 3 [Loc… NA      10 [Tam…
 9 0 [Entrevis…    NA   133    20     426      NA     0 3 [Loc… NA      10 [Tam…
10 0 [Entrevis…    NA   133    20     426      NA     0 3 [Loc… NA      10 [Tam…
# … with 58,967 more rows, 119 more variables: ent <dbl+lbl>, con <dbl>,
#   upm <dbl>, d_sem <dbl+lbl>, n_pro_viv <dbl>, v_sel <dbl+lbl>,
#   n_hog <dbl+lbl>, h_mud <dbl+lbl>, n_ent <dbl+lbl>, per <dbl+lbl>,
#   n_ren <dbl+lbl>, c_res <dbl+lbl>, par_c <dbl>, sex <dbl+lbl>, eda <dbl>,
#   nac_dia <dbl+lbl>, nac_mes <dbl+lbl>, nac_anio <dbl>, l_nac_c <dbl+lbl>,
#   cs_p12 <dbl+lbl>, cs_p13_1 <dbl+lbl>, cs_p13_2 <dbl+lbl>, cs_p14_c <chr>,
#   cs_p15 <dbl+lbl>, cs_p16 <dbl+lbl>, cs_p17 <dbl+lbl>, n_hij <dbl+lbl>, …
…
